module test

go 1.17

require (
	github.com/go-sql-driver/mysql v1.6.0
	github.com/gorilla/sessions v1.2.1
)

require github.com/gorilla/securecookie v1.1.1

require (
	github.com/davecgh/go-spew v1.1.0 // indirect
	github.com/pmezard/go-difflib v1.0.0 // indirect
	gopkg.in/yaml.v3 v3.0.0-20200313102051-9f266ea9e77c // indirect
)

require (
	github.com/angelodlfrtr/go-invoice-generator v0.3.1
	github.com/cockroachdb/apd v1.1.0 // indirect
	github.com/creasty/defaults v1.6.0 // indirect
	github.com/durango/go-credit-card v0.0.0-20220404131259-a9e175ba4082
	github.com/go-playground/locales v0.14.0 // indirect
	github.com/go-playground/universal-translator v0.18.0 // indirect
	github.com/jung-kurt/gofpdf v1.16.2 // indirect
	github.com/leekchan/accounting v1.0.0 // indirect
	github.com/leodido/go-urn v1.2.1 // indirect
	github.com/melbahja/got v0.6.1
	github.com/pkg/errors v0.9.1 // indirect
	github.com/shopspring/decimal v1.3.1 // indirect
	github.com/stretchr/testify v1.7.1
	gopkg.in/go-playground/validator.v9 v9.31.0 // indirect
)
